\relax 
\providecommand\hyper@newdestlabel[2]{}
\catcode`"\active
\providecommand\HyperFirstAtBeginDocument{\AtBeginDocument}
\HyperFirstAtBeginDocument{\ifx\hyper@anchor\@undefined
\global\let\oldcontentsline\contentsline
\gdef\contentsline#1#2#3#4{\oldcontentsline{#1}{#2}{#3}}
\global\let\oldnewlabel\newlabel
\gdef\newlabel#1#2{\newlabelxx{#1}#2}
\gdef\newlabelxx#1#2#3#4#5#6{\oldnewlabel{#1}{{#2}{#3}}}
\AtEndDocument{\ifx\hyper@anchor\@undefined
\let\contentsline\oldcontentsline
\let\newlabel\oldnewlabel
\fi}
\fi}
\global\let\hyper@last\relax 
\gdef\HyperFirstAtBeginDocument#1{#1}
\providecommand\HyField@AuxAddToFields[1]{}
\providecommand\HyField@AuxAddToCoFields[2]{}
\select@language{italian}
\@writefile{toc}{\select@language{italian}}
\@writefile{lof}{\select@language{italian}}
\@writefile{lot}{\select@language{italian}}
\@writefile{lof}{\deactivateaddvspace  }
\@writefile{lot}{\deactivateaddvspace  }
\@writefile{toc}{\contentsline {chapter}{Elenco delle figure}{ii}{chapter*.1}}
\@writefile{toc}{\contentsline {chapter}{Introduzione}{4}{Item.19}}
\@writefile{toc}{\contentsline {chapter}{\numberline {1}Importare dati in R}{5}{chapter.1}}
\@writefile{lof}{\addvspace {10\p@ }}
\@writefile{lot}{\addvspace {10\p@ }}
\@writefile{toc}{\contentsline {section}{\numberline {1.1}Soluzione richiesta 1}{5}{section.1.1}}
\@writefile{toc}{\contentsline {chapter}{\numberline {2}Analizzare l'oggetto data}{6}{chapter.2}}
\@writefile{lof}{\addvspace {10\p@ }}
\@writefile{lot}{\addvspace {10\p@ }}
\@writefile{toc}{\contentsline {section}{\numberline {2.1}Soluzione richiesta 2}{6}{section.2.1}}
\@writefile{toc}{\contentsline {chapter}{\numberline {3}Determinare il nome delle variabili presenti}{7}{chapter.3}}
\@writefile{lof}{\addvspace {10\p@ }}
\@writefile{lot}{\addvspace {10\p@ }}
\@writefile{toc}{\contentsline {section}{\numberline {3.1}Soluzione richiesta 3}{7}{section.3.1}}
\@writefile{toc}{\contentsline {chapter}{\numberline {4}Ricercare il valore 'X'}{8}{chapter.4}}
\@writefile{lof}{\addvspace {10\p@ }}
\@writefile{lot}{\addvspace {10\p@ }}
\@writefile{toc}{\contentsline {section}{\numberline {4.1}Soluzione 1}{8}{section.4.1}}
\@writefile{toc}{\contentsline {section}{\numberline {4.2}Soluzione 2}{8}{section.4.2}}
\@writefile{toc}{\contentsline {chapter}{\numberline {5}Determinare numero di righe con lo stesso valore}{10}{chapter.5}}
\@writefile{lof}{\addvspace {10\p@ }}
\@writefile{lot}{\addvspace {10\p@ }}
\@writefile{toc}{\contentsline {section}{\numberline {5.1}Soluzione 1}{10}{section.5.1}}
\@writefile{toc}{\contentsline {section}{\numberline {5.2}Soluzione 2}{10}{section.5.2}}
\@writefile{toc}{\contentsline {section}{\numberline {5.3}Soluzione 3}{11}{section.5.3}}
\@writefile{toc}{\contentsline {chapter}{\numberline {6}Determinare valore massimo}{12}{chapter.6}}
\@writefile{lof}{\addvspace {10\p@ }}
\@writefile{lot}{\addvspace {10\p@ }}
\@writefile{toc}{\contentsline {section}{\numberline {6.1}Soluzione 1}{12}{section.6.1}}
\@writefile{toc}{\contentsline {section}{\numberline {6.2}Soluzione 2}{12}{section.6.2}}
\@writefile{toc}{\contentsline {chapter}{\numberline {7}Grafico lineare}{13}{chapter.7}}
\@writefile{lof}{\addvspace {10\p@ }}
\@writefile{lot}{\addvspace {10\p@ }}
\@writefile{toc}{\contentsline {section}{\numberline {7.1}Soluzione richiesta 7}{13}{section.7.1}}
\@writefile{lof}{\contentsline {figure}{\numberline {7.1}{\ignorespaces Grafico lineare dei valori POPESTIMATE*\relax }}{14}{figure.caption.4}}
\@writefile{toc}{\contentsline {chapter}{\numberline {8}Grafico a barre}{15}{chapter.8}}
\@writefile{lof}{\addvspace {10\p@ }}
\@writefile{lot}{\addvspace {10\p@ }}
\@writefile{toc}{\contentsline {section}{\numberline {8.1}Soluzione richiesta 8}{15}{section.8.1}}
\@writefile{lof}{\contentsline {figure}{\numberline {8.1}{\ignorespaces Grafico a barre dei valori POPESTIMATE*\relax }}{15}{figure.caption.5}}
\@writefile{toc}{\contentsline {chapter}{\numberline {9}Pie chart}{16}{chapter.9}}
\@writefile{lof}{\addvspace {10\p@ }}
\@writefile{lot}{\addvspace {10\p@ }}
\@writefile{toc}{\contentsline {section}{\numberline {9.1}Soluzione richiesta 9}{16}{section.9.1}}
\@writefile{lof}{\contentsline {figure}{\numberline {9.1}{\ignorespaces Grafico a torta dell'andamento dei valori POPESTIMATE*\relax }}{16}{figure.caption.6}}
\@writefile{toc}{\contentsline {chapter}{\numberline {10}Presentazione del progetto con Shiny}{17}{chapter.10}}
\@writefile{lof}{\addvspace {10\p@ }}
\@writefile{lot}{\addvspace {10\p@ }}
\@writefile{lof}{\contentsline {figure}{\numberline {10.1}{\ignorespaces Tabella dinamica creata con Shiny\relax }}{17}{figure.caption.7}}
\@writefile{lof}{\contentsline {figure}{\numberline {10.2}{\ignorespaces Grafico lineare interattivo con Shiny\relax }}{17}{figure.caption.8}}
\@writefile{lof}{\contentsline {figure}{\numberline {10.3}{\ignorespaces Grafico a barre interattivo con Shiny\relax }}{18}{figure.caption.9}}
\@writefile{toc}{\contentsline {chapter}{\numberline {A}Equivalente del progetto in Excel}{19}{appendix.A}}
\@writefile{lof}{\addvspace {10\p@ }}
\@writefile{lot}{\addvspace {10\p@ }}
\@writefile{toc}{\contentsline {section}{\numberline {A.1}Come importare il file.csv in Excel}{19}{section.A.1}}
\@writefile{lof}{\contentsline {figure}{\numberline {A.1}{\ignorespaces Dati selezionati\relax }}{20}{figure.caption.10}}
\@writefile{toc}{\contentsline {section}{\numberline {A.2}Come eliminare un valore da un data base}{20}{section.A.2}}
\@writefile{lof}{\contentsline {figure}{\numberline {A.2}{\ignorespaces Dati dopo aver applicato i filtri\relax }}{21}{figure.caption.11}}
\@writefile{toc}{\contentsline {section}{\numberline {A.3}Tabella pivot per la frequenza in COUNTY}{21}{section.A.3}}
\@writefile{lof}{\contentsline {figure}{\numberline {A.3}{\ignorespaces Frequenza valori in COUNTY\relax }}{22}{figure.caption.12}}
\@writefile{toc}{\contentsline {section}{\numberline {A.4}Max tra i valori POPESTIMATE*}{22}{section.A.4}}
\@writefile{lof}{\contentsline {figure}{\numberline {A.4}{\ignorespaces Max valori POPESTIMATE*\relax }}{22}{figure.caption.13}}
\@writefile{toc}{\contentsline {section}{\numberline {A.5}Grafico a linee}{23}{section.A.5}}
\@writefile{lof}{\contentsline {figure}{\numberline {A.5}{\ignorespaces Grafico a linee dei valori POPESTIMATE*\relax }}{23}{figure.caption.14}}
\@writefile{toc}{\contentsline {section}{\numberline {A.6}Grafico a barre dei valori POPESTIMATE*}{24}{section.A.6}}
\@writefile{lof}{\contentsline {figure}{\numberline {A.6}{\ignorespaces Grafico a barre dei valori POPESTIMATE*\relax }}{24}{figure.caption.15}}
\@writefile{toc}{\contentsline {section}{\numberline {A.7}Grafico a torta dei valori POPESTIMATE*}{25}{section.A.7}}
\@writefile{lof}{\contentsline {figure}{\numberline {A.7}{\ignorespaces Grafico a torta dei valori POPESTIMATE*\relax }}{25}{figure.caption.16}}
\bibcite{pantieri : impaziente}{1}
\bibcite{bibliografia}{2}
\bibcite{Census Bureau}{3}
\bibcite{Rstudiol}{4}
\bibcite{Excel}{5}
\bibcite{Barplot}{6}
\@writefile{toc}{\contentsline {chapter}{Bibliografia}{26}{figure.caption.16}}
