SUMLEV,STATE,COUNTY,PLACE,COUSUB,CONCIT,FUNCSTAT,NAME,STNAME,CENSUS2010POP,ESTIMATESBASE2010,POPESTIMATE2010,POPESTIMATE2011,POPESTIMATE2012,POPESTIMATE2013
040,11,000,00000,00000,00000,A,District of Columbia,District of Columbia,601723,601767,605125,619624,633427,646449
162,11,000,50000,00000,00000,N,Washington city,District of Columbia,601723,601767,605125,619624,633427,646449
050,11,001,00000,00000,00000,F,District of Columbia,District of Columbia,601723,601767,605125,619624,633427,646449
157,11,001,50000,00000,00000,N,Washington city,District of Columbia,601723,601767,605125,619624,633427,646449
